10000250	17153,5598,6438,19974
10018000	16406,5429,7868
10047250	3555
10052000	21110,22280,22126,7680
10054250	842518034,4667,20297,9226,19660
10063000	2257,21110,8689
10064500	1222022583,29099,2683,12394,5799
10069500	2257,4571,8637,7868
10095000	266997868,8278,16624,28653,14261
10112000	6839
10119250	12352,7868
10185000	7868
10212500	24081,24788
10224750	11679,25960
10229250	2377428653,24541,8689,3627,24869
10234000	1097025086,4039,11524,19402,14261
10257500	4281
10261750	2389619394,17061,5285,18805,18024
10264750	29203
10297000	18075
10302500	18167,8689,679,12162
10309250	18996,11329,5043,29099,14942
10312750	289915934,8689,5185,12352,20367
10322250	1731,10702,28967,5185,18575
10393750	7868
10401500	7868,18465,13258,12189,27791
10443000	236281392,8689,10570,29099,13460
1046250	2257,27791
10492250	86893228,11176,28752,12352,12606
10521000	18612,7868
10533750	303224601,29099,27346,14261,19974
10539250	14020,1461
10546500	5955
10566000	3854,11204,7868
10578000	2089629213,28992,26523,14073,13778
10588000	14020,15138,849
10592000	111767868,12352,12394,14261,2257
10592750	159343804,13093,23798,8689,25488
10598500	1557105,24385,12394,12352,14165
10609250	5330,21919,8693,19702,5598
10628500	213364039,23549,27035,12159,3324
1063000	2419622280,15019,20551,24929,22749
10642000	205367567,3627,16754,25570,9782
10653250	2139229099,16406,7868,29203,20180
10654750	12212
10696000	25420,504,14153,3740,11022
1074500	16602,14261,12606
1074750	218652257,647,7868,16406,14580
10756500	14942
10768750	11150,6672
10773000	187362257,28124,11196,12977,2999
10774750	2899,8689,1577,14942
10790500	7105
10816000	27334
10818500	7868,14261,29099,2683
10831750	5640
10840750	8689,29099
10845500	28924,18075
1086750	1084,14261,7868,18977
10915250	18075
10944750	1967325372,7150,8689,28752,155
10966250	8689,251,4949,17087
10976250	11679,12394,12285
11022500	15019
1104500	1119612168,14294,12394,2683,18678
11046750	7169
11078500	18024
1110750	3458
11111500	27791,4216
11114000	25372
11121500	1304915799,20297,8530,24601,18024
11129250	9497868,11080,3627,2683,28924
11131750	294724039,16406,7868,11196,17647
11137750	583224869,24669,12068,21841,25360
1114000	25960
11142000	1818029099,17407,7868,18075,12352
11158000	288765043,6738,239,7868,25169
11169500	14020,4220,953
1118250	109703068,7070,18712,19096,5661
11220500	12285,11431
11225500	24869,16463,13020,8628,25960
11283500	16463,12220,2683
11300000	8689,2963
11307500	12068,18167,22359,20300,8628
11313000	2186518075,27791,12394,11196,7868
11321750	990617060,21684,643,6284,10879
11339250	6828
11340250	25329,12394,26973,14294
11352000	12352,7096
11362000	5330,8693,7868
11391250	28924
1140750	256517868,12541,19421,6741,14261
11434750	1084021823,7071,18758,24004,9985
11440500	6571,504,16540,14261,7936
11493000	14661,8689,1533,12453,7868
11494250	8676,11196
11496750	20101
11503250	504
11527500	27791
11535250	2257,12394,16463
11552750	23448,27791
11564250	9140,1831
11579750	14020,8410,14261,11196
11590500	14821,18741,7868
11601500	14020,11080,12220
11612500	12394,18075,18741,5848
11613500	7868
11625250	3740,18990,28017
11632250	25022
1165500	15423
11683250	24704,14603,12541,7868
11687000	8689
11701500	14020,26679,22052,4281
11711250	6175,24942,1392,21338,20617
11730000	137875443,1446,21565,6193,13390
11734000	14261,7868
1173500	24869,8257,23928,5848
11747250	6799563,16918,27487,4960,251
11761750	554,28975,3913
11794250	28924,28653,29099,27092
1181250	720829213,8689,27390,23284,7868
11847750	3555
11874000	181671282,24087,12220,4220,4510
1189000	1681811328,23628,3627,15019,28621
11894500	24009,26619
11896000	12068,16564,19166
11936000	28924,13020
11939000	2257
11947000	232211080,14020,7868,12162,14261
1194750	86374059,27052,3627,7868,25169
11949750	6571,13554,10353
11957000	1681821995,21078,23907,12977,14261
11972750	7936954,15631,4846,647,28855
11984750	1402012352,8689,993,7868,251
12004000	18683,16463,7680
12008000	1633125618,14261,17647,4960,24274
12015000	15138,26900,5176,22240
12016750	5661,9671,28653,18741,7248
12027000	2322,21865
12028500	18496,16540,13390,21392,11196
12061000	8628,16463,18075
12142750	15019,29099
12154500	868929099,14261,2683,11176,7868
12173500	28370,21110,3627,15405,554
12204750	6571
12215000	1117629099,8637,3627,14942,2257
12231250	24274,27155,26973,28149,29099
12234750	2946526614,26736,949,22126,25372
12239250	585625618,12271,18075,26288,7868
12275500	9563,23134,7572,5429
12331000	26614,11330,21739,21758,18180
12337750	21092
12371000	862811776,24541,25086,23896,17514
12377250	140205799,2729,8689,21887,12394
12384250	3658
12386500	2367,13087
12388250	11196
1240250	20297,12394,8689,18392
12417500	173115138,8689,16406,18024,28411
1244250	4324,2764
1247000	25635,5043,29099,18712
1319000	10449
1324500	12394,27927,7868
1338750	6571
1365000	14580
1381000	25329,29099,14261,27637
140500	10480,12394,6918,3627,18730
1441500	27508
1446250	115520297,18712,7868,7105,23482
145750	11578,11196
1459000	6147
1492500	1765316406,24886,8689,7868,12352
1517000	4808,15086,16302,7208,27205
1525000	2257,7868,11196
1528500	1873612977,4750,18466,500,23013
1531250	18075,12394,14020,11176,4078
154500	1880513830,3627,11176,29197,28621
154750	8943,11196
1561250	70963627,14020,12168,7868,14261
1579250	99067105,8698,4078,24194,4953
1617250	2191911329,27791,28463,12283,18002
1620500	23735,1195,28774
1622500	1402011196,12285,7868,2257,28924
1629250	912018024,7868,12394,29099,21392
1661750	140209802,1731,3151,2729,22342
1688750	14020,3145,12220,7248
1699500	16716,24715
1710500	12352,28065,14261,29099,7868
1724000	12168,29099,7868
1724250	3228,7868
1727500	27334,9563,3228
1758250	6571,28463,27791,28481,2764
1767500	14626
1782250	18024,155,24460,14415
1792000	2321429099,20630,20979,16540,11176
1793250	21067,14020,2033
1806750	20701,26394
1812000	16406,19814,29077,7868,11196
1815750	5067
1832000	10916,25687,11939,7868
1838750	16818
1904750	22484,27314,9138,23928
190500	20751,18465,4281
1906000	211101831,2683,2438,16540,12220
1909250	6326,26523,504,18180,20516
1911500	187303627,14261,16406,29099,11196
19500	709614261,19421,5086,27927,11176
1953250	1402012352,2610,3658,12394,3627
1966250	1553228,12394,2257,3627,12168
1969000	20297,5987,12220
1971500	70967230,24070,21919,27791,7004
1985250	12394,18075,2683
200250	12352,19166,8689,25570,5856
2033500	747318611,712,18075,4949,7868
203750	18075,4728
2050000	1899621659,26866,5620,17960,15231
2076000	7868
2078000	14020,14902,7622,24669,27791
2088000	15019,13020,617,21883
2103250	75673627,22280,11022,24325,14902
2132250	14159
2138750	14120
2168250	28653,7868
2182750	2257,8689,18808
2187500	6158,29203,23628
2198750	1225718024,12220,5429,16550,12394
2200750	140202610,8630,18741,2655,9315
2232500	1402024929,11196,679,11000,14261
2251750	23549,6571
2253250	28975,7868,155,14261,11196
2316250	234759657,18180,26288,9688,10948
232000	16406,21865,7105,7868
2331750	86287868,24893,27179,8625,14318
236000	17690,8637,18275
2364500	21865
2378500	1893714153,19974,26619,16722,3228
2386250	1008
239250	28481,18990,7868
2428500	17153,1396
2448250	24669,12541,949
2480750	12394
2492500	20979,16939
252500	1880518544,6199,15089,23826,23656
2626250	11176,7868
266500	10282,9657
267250	137872367,5053,11679,16406,20297
2688750	19814,15721,155,22749,3774
2704750	3658,13592
2752000	116795043,27906,3313,19405,8689
2756000	13773,21485,21092,15320
2768250	23421
2771250	14694,476,1494,2963,29099
2788750	709618515,23628,5043,29099,10702
2797750	8689,3658
2807500	18024,11329,504,18741,27117
2808500	12394
2823250	25329,2610
282500	12055,3850,1962,2683
2852250	14261,29099,2683
2870250	7096,17606,14020,11196
2874500	2257,28370,3047,22094,7868
2882750	11330
2891500	1117614580,8689,3047,3627,2257
2920750	2235922400,26699,27155,7071,14261
2921750	1103511201,12352,11176,7105,27791
2940000	1127214580,26722,2683,12168,11767
2968250	1880516463,4578,8689,11624,14273
2975500	166705086,8689,16406,14902,11176
2988000	17133
299750	24869,11080,24601
3001000	4571,11080,679,14902
3009000	146955627,28411,15019,7230,17732
3010000	4220,13975
3014750	13471,18558,7868
3031750	1387816110,8689,27117,18131,29099
3035250	14020,11080,11196
3054250	1402029203,9563,12285,7248,5448
3089500	1917
3096750	11541,15315
309750	4545,15365
3114000	205362319,23928,22268,21110,20484
3148500	162178689,28508,27346,155,12795
317500	7868
3188000	16463,26618
3211250	16110,6148,11076,239,27155
3216500	21146,27168,2963,28992
3226500	12394,27791,8689,22240
3245250	2257
3249250	26394,12394,28641,29099,7868
3257000	8689,11176,7868
3266750	5416,3228
3282250	29099
3288250	19394,25651,7868,6395
3293750	26523,7070,18075
3304500	493129099,25169,3804,6158,24461
3310750	149523458,25086,24083,23774,8689
3317500	7105,155,3032,1917,4326
3326250	614,27389,20154,18712,24459
3344750	140202771,26614,2421,28463,24196
3350250	18736,3409,25420,3384,1672
3363000	18868,3627,15315
3396250	15138,16939
3404000	27791,15911,28653,3627
341000	2257
3511000	29203,12394,13020,19651,14020
3520000	299924669,22126,23928,14415,155
3524750	4808
3549000	14261,5184
3573750	12394,11176,7868
3581250	2321428411,12352,18075,22126,5848
3588500	12352,21336,8637,7432,18712
3590000	28924
3592750	14694,8689,7868
3625250	21372,26614,18180,20549
364250	11679
3644250	294737230,14661,16406,18843,7868
3675000	16722,8851,9563,15024
3684750	20297,16463,16754
371250	21110
3719250	3362,4960
3723750	12271,5598,14020,25372,4078
3742000	13020,7868,29099,2669
3751500	23284,20300,10193,28411
3787750	6077,26969,19458,2610
3795000	12352,29099
3799500	21768
380000	554,12329,22094,1773,5620
38250	1117610051,2257,18730,14265,28719
3846250	1167915584,23143,12352,2826,16722
3849750	9549
3861500	7868
3895750	12933,12475
3903500	1392,15514
3913250	12394,8689,14020,12220,3626
393250	2015413093,11176,2257,22306,4949
3952000	464829099,25917,13998,4479,19837
3963750	709614261,11330,26614,18075,12977
3977750	1461,13975,17087
3981750	322827791,23143,22280,2257,5185
4004500	6571,15315,2683
4035250	9340,3185,8630
4037500	14523,25883
4047000	7208,12828,29446,18712
405000	1135
4054000	28124,20121
4059500	16463,12159,29099,7868
4063000	19974,11196
4073250	12271,17153,27415,22836
4087750	3627,7868
4102750	10026,20585
4115500	26619
4118250	5185
4133750	25372
4153000	2262118075,29099,9111,26523,21865
415500	554,8689,23164
417250	12068,3627
4184250	140202257,23928,11196,4949,241
418500	15138
4186500	12394,27092
4195500	12285,9802,15315
42000	13390,11578
4215750	93404281,11391,21085,23928,7230
425500	12285,17506,22094,8313
4256000	1633114153,7692,5661,18741,27791
4257000	11176,11196
4259500	2909915019,11176,15315,23628,9111
4304250	67914902,14261,24929,7868,1155
434750	6104,4571,19394,3228
4370750	15638,23628,16343,4078
4376250	11524,15631,8689
4378500	8689
439000	2541526404,12287,7868,647,3228
4392000	14020,2610
4423500	9111
4447000	3627,7868
4454500	15019,28653,26699,27117
4475750	1559671,14020,20536,11176,3627
448250	15911
4503500	11936,3627
452750	156386672,14020,24392,251,21865
4533750	10970,11431,10908,4324
4547500	8257,7868
4557250	7868
4625750	868922749,10570,22321,1000,11734
4631250	1117629099,15934,13103,20896,7868
4658500	2111011330,25917,10948,25960,18075
4680000	16463
47000	2999,23549
4712250	18388
4716750	29202,8511,2963,13784,2683
472000	2533312352,6211,3515,21565,2963
4770500	1402024869,18075,20297,28975,2610
4782250	10778,27791,10193,5724,9658
4809000	9193,1461,22211,27637
4809750	679
4814750	26568,7868
4844000	2836211176,24196,5598,7868,27396
4850000	614,12512
4852000	7868
4852500	26288,24541,911,5848,16500
4876750	949,12394,11431,11378,7868
4880250	27096
4886500	18805,20146
4895250	1916615423,7248,1335,21067,24541
4902250	2323,23628,7868
4907500	2419611060,5086,9709,8775,5712
4921000	189908689,19974,3032,14048,23549
4922750	18013,20701,18024,2669
4956000	14261,15315,7868
4963500	21110,15534,16572,21092,18002
4967250	28391,7868
5011500	27092,22280,6219,20180,11196
5012750	111968799,10893,14261,5043,13020
5024500	21110528,12394,12168,9802,7868
5034000	7868,14261,10584,11176
5037000	1119614796,4571,27508,21067,6880
5052000	7868
5078750	709610329,23628,13592,554,4949
5082500	14020
5082750	4795,7868
5108000	45712683,29203,7070,23628,155
5110750	1816726114,21146,3324,25793,11176
5139250	2382614261,21336,11080,29099,1731
5143250	54298689,23549,26394,28641,20411
5155750	29998173,24669,14661,18024,7432
5170500	18805,14020,21672,7868
5187750	29099,7868
5199750	679,9936
5220750	8689
5226250	1402010726,2257,21865,24669,26416
5226500	22484,11687,8689,3627,7868
5238000	16406,15138,29099,2683
5239500	14153,16939
5248750	18575,9290,27035
5254500	2235915478,24601,21672,25488,7868
5256500	614
5261000	11410,11000,1591,13592,11196
5264500	1402012394,27791,2683,12352,7868
5279750	27117,3228,6880,2368
528250	70962963,21146,8693,155,12977
5292000	1131,19974
5293250	4571,3995,679,7868
5320000	2683,3228,7868,11196
5336750	67924669,5043,25272,11000,8965
5354000	18024,11196,18990,10014
5407750	6352,3850,29099,16373
5440500	11080,5043,25272
5440750	296312394,19862,20701,25029,12168
5467250	18046
5491500	1802420803,14265,6880,14261,26288
5522250	111762257,4479,15315,8689,12352
5539250	15524258,8689,11983,7868,18075
563500	1899023928,2683,10778,5461,28653
5642000	1084014318,22552,11176,7868,10726
5654000	4571,528,5896,16939
5655250	1402023669,2257,11196,9131,16406
567250	6968,949,27791,7105,7868
5693000	14020,2655,21899
5697750	2367,27791
5726500	14020,7868,11176,23465
573000	18868,7473,7868
5735000	7868
5742000	25248,20668,29465
5745000	2257
5751500	116792033,19680,24869,1392,25488
5754500	1402025618,14784,10282,11790,23214
5769750	26614,16818,143
5780000	15525651,7868,21336,23928,5157
5812000	4039,17641,2683
5828250	4808,9031
5846250	1831
5847500	21865,28504,7868
5865750	322857,7868,911,11652,11196
5898500	17732,7105
5899750	18730,12220,21672
5901250	14575,12606
5906250	27791,13784
5910250	937
5911250	12352
5915250	2367,15138
5952250	5067,5094
5959000	1880527791,29099,2683,14153,12352
5962750	274469563,7105,3228,2683,11080
5968250	16406,13097,21840,29099,11196
599750	1899020297,14261,12285,9657,12168
5999000	14265,10908,26523
6003750	2003912285,23628,4750,10726,2257
6014750	28653
6061250	1646329203,22359,8628,15019,11176
6099250	7868
6126750	15019,25169,25117
6150750	18185,26523,17429,15831,4835
6155250	140201773,5015,27653,4220,29203
6172000	24704,7827
620500	63527975,15345,21840,4571,26114
621500	868929099,2683,16009,8726,7868
6233750	1067818180,3458,10948,21146,26619
6234000	1646321372,4220,17020,12352,4571
6247250	2863125618,15814,16918,11176,22736
6257000	2362823563,22749,16540,21071,16986
6258500	12068
6266000	23774
6272000	2803,12055,17400
6299000	7868
6301250	259177868,8637,12271,8689,14942
6334000	10627
6380000	24459
64000	12394
6400000	2600,3313,20551,18712,2452
6412250	15159,7260
6412750	12352,15019,7208,14580
6433000	17087
6458250	27205,23475,22280,7692
6458500	8637
6497000	7927
650750	18202,17772
6515500	29099
6523250	16406,14020,11196
65500	2419629099,5443,2452,29202,21840
6564500	149027868,18730,11176,29099,12394
6571000	13878,27052,27543,19987,12162
6571750	17706,5661,16540,155,9193
6572500	29099,7868
6619500	3627,21067,1917,15089,15934
6634500	6571
6654750	16110,14261
6683750	29203,2826,29551,14261,10169
6694750	1402012352,5053,18075,18730,23007
6700250	7957,18575,11176
6713250	188052367,2683,5185,14020,24541
6751750	3658
6766250	18805,27791,3977,28945
6780500	4571,29099
6807250	8630,27791,25372,14261,5712
6848000	12977,23622,24601,26619
6848750	21336,8689,7070
6849750	11679,19394,29099,2199
6852750	720812285,7356,4949,27906,16939
6872750	20393
6874250	1880528410,11080,8637,24844,647
6897000	18544,7626,23223
6904000	9111,8689
691500	8689239,28641,21840,15390,19974
6921750	2367,19197,7868
69500	469117470,2257,14020,1917,6352
6957500	2441714153,16722,9111,24898,23025
6996000	12165
6998500	201,8689,3627
7003500	25090,11196
7016500	14020,18075,26546
7034000	1392,3850
7060500	504,760
7103000	2366212586,5574,15423,15019,12394
711500	26722,11578
7116750	2257,23669,27637,12541,11196
7143250	1378423896,29203,26077,15799,26114
7163250	2015429099,2257,22609,8689,19702
7184500	223596352,10193,22058,28463,16939
7190750	27791
7218000	709622317,10702,6951,2257,11201
725000	2257
7269250	8637,27791,2729
7269750	4019,19475
7306250	4691,22359,7868
731750	9195,7692,11196
7320250	26728
7322250	11176
7323750	3458,11196
7361250	24541,28410
7367000	15518730,21336,20297,15686,11888
7375000	11201
7435500	7975,18024
7445000	16463,18075
7450000	863712977,7868,14261,27791,29202
745750	322821071,7827,4578,29099,7230
746000	65717105,155,3032,12435,21865
7476250	457123284,29099,15019,28653,14261
7545250	11679,14020,14381,29099,3228
7568250	12394
7568750	4329,12285,1831
7588000	103297105,29099,17470,28975,28653
7600250	1117612352,3228,7868,24869,25570
764000	18990
764750	14153
7657250	3228,2043,29445
7687500	52676737,12364,16453,8173,13853
7699500	81739802,18075,23928,11196,5848
7703750	1402018868,18075,18730,12394,8278
7715000	117907868,13795,11176,19394,24978
776750	2235927401,14153,2257,18730,11176
7785250	11790
7797000	6447,6571,11196
7810250	8637
7830250	554
7854500	1402011080,527,4571,2421,4949
7886000	5094,6880,29099,15934
7892000	14020,911,28653,1530
7898750	7868
791500	103298738,20297,14712,3627,24831
7921500	22556,14020,22583
7927750	14020,3032,26288
7976750	3228
799000	16331,3555,27791,29099,8278
8017000	22280,23284
8033500	12435,28653,14020,2471,16939
8040000	825717084,7868,9792,15138,2655
8049000	506720979,2683,21094,4582,17664
8051750	20297,14020,7936
8060000	18024
8070000	29197
8072250	12977,14020,23143,1392,11196
8096750	322811196,26288,23628,21672,22077
8100250	7868
8102000	21110,768,2683
8111500	12352,2257,11080,14261
8123500	1591
8129250	8637,16323,7868
8145500	21883,18124
8149250	1119612162,18075,16406,2367,7868
8156500	407819974,6447,20297,3627,6951
8160750	17641,15308,18529,11196
8163500	2262117389,7868,2257,18868,14261
8170750	1966
8195000	89432683,5185,18024,4078,28410
8215250	14020,25372,14261
8216500	614822552,18712,25308,2257,27791
8216750	24281
8230750	4949,7868
8243500	493116857,11196,3047,11776,14048
8271000	11280
8280500	17972
8314250	17770,27618,11196
832250	18024,27791,23143,5053,11196
8324500	14020,9848,9657,18741
83250	76241731,21238,4220,25329,25753
8346250	16939
835000	138788637,7868,21462,16722,7990
8353250	1633112285,27205,20297,7230,155
8385000	211103458,9111,23284,7680,16463
8435250	1654011176,11080,18730,7868,14261
847750	28169,18024,21684,12728
848500	1119614261,23628,24977,19891,16406
8523250	1731,25500,7827
8528750	27791,15315,11196
8529750	1402022583,16939,18075,9702,12394
854250	4571,7868
8555500	5598,25372,18180,29078
8573000	2323,6158,28049,19828
861750	28924,27791,23284
8617500	28270,11280,26619,4571
8622000	15935
8628250	294655848,20979,26288,28481,8630
8649250	18024,6571,2826,16939
8701250	1884
8702500	82577105,11176,11196,16540,7868
8730250	8257911,4571,11679,18024,3913
8745250	7706,23086
8757750	18024,24601,26288
8799750	1359218024,14261,7868,4571,679
8822250	18013,4578,17483
8845250	1873623628,554,12394,8689,23928
8869250	8689
887500	11080,18946
887750	15019,15934
8909750	22342,20803
8910750	1816729099,24929,5598,29078,26614
892500	1880518741,17446,14020,7868,239
8940500	1402025917,4571,23928,11196,2257
8949750	16818,17438,21962
9035750	2191917977,25618,4479,27052,18544
9039750	322816406,11196,1293,3627,14580
9055750	11201,18024
9069000	15515302,28017,3627,2257,8689
9076750	18575,17748
9079500	469125272,11022,7868,7208,27314
9121750	188055799,21838,4571,15946,7868
9123500	1469420846,12168,15138,4324,3433
9163000	6571,23475,11080,8689,7868
9173750	1402013784,11679,16406,11196,12541
9179500	17629,27637,12220,11196
9199500	4578,24969,29099
9212500	7150
9215000	14294,12394,14020,11196
9244000	16836,9972,7868,13471,13442
9288000	11328,19394,2971,2683
9351750	20626,11080,28930,14580,3627
9352750	17133,18075
9394250	19014,29203,3228,17087,11196
9394500	2947229099,8965,6880,16540,26712
9436000	504,6571
9437500	72082683,12168,489,15718,22280
9438000	15019
9463750	16406,3677,11196
9512750	28924,19903,11080,4239,27205
9513250	414,18024,23928,7868
9586500	4145799,24601,17401,7868,8689
9592500	7868
9628250	18024
965500	20297,9671,18712
9671750	26722,7868
9685000	3185
9694750	8689
969750	2367,14020,3047,2963
9706000	184910780,849,22094,9612,1257
9716500	28065,12168,6908
9720000	28924,2771
9782000	14902,5086,7248
9782500	5856,6352
980000	29099
9802000	5883,24015,24601
9807250	7868,26699,2683
981000	1402012394,11176,28270,11196,14153
9839750	18167
9842500	188058689,11176,7380,25086,7868
984500	27791,8689,18730,7868
9906500	15523656,5185,12394,8689,28411
9946250	21865,155,26619
9972250	15138
9979000	86287868,12352,2257,251,3627
