10000250,17153
10000250,19974
10047250,3555
10052000,21110
10052000,22280
10052000,7680
10052000,22126
10054250,20297
10054250,4667
10054250,19660
10063000,21110
10064500,29099
10064500,22583
10064500,12220
10064500,5799
10069500,8637
10069500,4571
10069500,2257
10069500,7868
10095000,26699
10095000,8278
10095000,14261
10224750,25960
10224750,11679
10229250,23774
10229250,24541
10229250,24869
10229250,8689
10234000,10970
10234000,14020
10234000,9111
10234000,25086
10234000,14261
10234000,11524
10234000,28653
10234000,4039
10234000,15019
10234000,28975
10234000,25570
10234000,19402
10257500,4281
10261750,18805
10261750,19394
10261750,17061
10261750,17405
10261750,18024
10261750,23628
10261750,8278
10261750,16331
10261750,14261
10264750,29203
10297000,18075
10302500,18167
10302500,679
10302500,12162
10302500,8689
10309250,11329
10309250,14942
10309250,5043
10312750,20367
10312750,3627
10312750,9563
10312750,12352
10312750,28201
10322250,5185
10322250,1731
10322250,10702
10322250,18575
10322250,28967
10401500,18465
10401500,13258
10401500,12189
10401500,27791
10443000,23628
10443000,10570
10443000,1392
1046250,27791
10492250,3228
10492250,4949
10492250,28752
10492250,24984
10521000,7868
10533750,3032
10533750,24601
10533750,19974
10533750,14261
10533750,27346
10539250,14020
10539250,1461
10566000,3854
10566000,11204
10566000,7868
10578000,20896
10578000,13778
10578000,26523
10578000,29213
10578000,14073
10588000,14020
10588000,15138
10588000,849
10592000,6951
10592750,25488
10592750,3804
10592750,15934
10598500,155
10598500,9563
10598500,7105
10598500,11776
10609250,21919
10609250,5598
10609250,19702
10609250,8693
10628500,11524
10628500,20297
10628500,18075
10628500,3185
10628500,28641
10628500,12159
10628500,28945
10628500,24869
10628500,14294
10628500,18736
10628500,16463
10628500,13784
10628500,23549
10628500,4039
10628500,21336
10628500,26619
10628500,12285
10628500,27117
10628500,23928
10628500,27035
10628500,27791
1063000,24196
1063000,22280
1063000,24929
1063000,28481
1063000,20551
1063000,15019
10642000,20536
10642000,11176
10642000,16754
10642000,3627
10642000,26728
10642000,251
10642000,25570
10642000,5053
10653250,29203
10653250,21392
10696000,11022
10696000,14153
10696000,3740
10696000,25420
1074750,21865
1074750,647
1074750,22556
1074750,12285
1074750,12220
1074750,11080
1074750,14580
10756500,14942
10768750,6672
10773000,18736
10773000,2999
10773000,2257
10773000,28124
10773000,12977
10774750,1577
10774750,14942
10790500,7105
10831750,5640
1086750,7868
10944750,28752
10944750,19673
10944750,25372
10944750,7150
10966250,251
10966250,4949
10966250,17087
10966250,8689
10976250,11679
10976250,12285
1104500,14294
1104500,2683
11046750,7169
11078500,18024
1110750,3458
11111500,27791
11114000,25372
11121500,13049
11121500,18024
11121500,24601
11121500,8530
11121500,15799
11129250,11080
11129250,949
11131750,4039
11137750,24669
11137750,12068
11137750,19891
11137750,24869
1114000,25960
11142000,18180
11158000,25169
11158000,8637
11158000,239
11158000,5043
11158000,7868
11169500,953
11169500,4220
1118250,10970
1118250,11176
1118250,8278
1118250,7070
1118250,18712
1118250,3626
1118250,5661
1118250,6672
1118250,27346
1118250,14294
11220500,12285
11220500,11431
11225500,8628
11225500,25960
11225500,16463
11225500,13020
11225500,24869
11283500,16463
11283500,12220
11300000,2963
11307500,18167
11307500,8628
11307500,20300
11307500,12068
11307500,22359
11313000,21865
11313000,11196
11313000,27092
11313000,27791
11321750,9906
11321750,19891
11321750,21684
11321750,21672
11321750,12358
11321750,28481
11321750,27205
11339250,6828
11340250,25329
11340250,14294
11352000,7096
11362000,8693
1140750,25651
1140750,19421
1140750,6741
1140750,12541
1140750,14261
1140750,7868
11434750,21823
11434750,9985
11434750,7071
11440500,16540
11440500,7936
11440500,6571
11493000,14661
11493000,7868
11494250,11196
11503250,504
11527500,27791
11535250,2257
11535250,16463
11552750,27791
11564250,1831
11590500,14821
11590500,18741
11601500,12220
11601500,11080
11612500,18075
11612500,18741
11612500,5848
11625250,18990
11625250,3740
11625250,28017
11632250,25022
1165500,15423
11683250,24704
11683250,14603
11683250,12541
11687000,8689
11701500,4281
11711250,20617
11711250,24942
11711250,6175
11711250,1392
11711250,21338
11730000,13787
11730000,5443
11730000,21565
11730000,13390
11730000,6193
11730000,17181
11730000,422
1173500,8257
1173500,23928
1173500,24869
1173500,5848
11761750,554
11761750,28975
11761750,3913
11794250,29099
11794250,27092
1181250,7208
1181250,27390
1181250,29213
1181250,16169
1181250,23284
11847750,3555
11874000,4510
11874000,18180
11874000,29203
11874000,12220
11874000,4220
1189000,16818
1189000,28621
1189000,23628
11894500,26619
11896000,19166
11896000,12068
11936000,13020
11947000,2322
11947000,24417
11947000,9522
11947000,15233
11947000,28967
11947000,12162
11947000,11080
11947000,20411
11947000,13103
1194750,679
1194750,25169
1194750,24669
1194750,3627
1194750,8637
1194750,20551
1194750,7827
1194750,21092
11949750,6571
11949750,10353
11957000,16818
11957000,23907
11957000,21078
11957000,12977
11972750,7936
11972750,15631
11972750,647
11972750,28855
11972750,4846
11972750,17972
11984750,251
11984750,993
11984750,3627
12004000,18683
12004000,16463
12004000,7680
12008000,16331
12008000,25618
12008000,14261
12008000,4960
12015000,15138
12015000,26900
12015000,22240
12016750,7248
12016750,5661
12016750,28653
12016750,18741
12016750,9671
12027000,2322
12027000,21865
12028500,11196
12028500,13390
12028500,21392
12028500,16540
12061000,16463
12061000,8628
12154500,27791
12154500,8689
12154500,7868
12173500,28370
12173500,21110
12173500,554
12173500,3627
12173500,15405
12204750,6571
12215000,14942
12215000,8637
12215000,9363
12215000,28463
12215000,6672
12231250,27155
12234750,949
12234750,22126
12234750,4510
12234750,29465
12234750,26614
12234750,21632
12234750,25372
12239250,5856
12239250,26288
12239250,12271
12239250,25618
12275500,23134
12275500,9563
12275500,5429
12275500,7572
12331000,21739
12331000,21758
12331000,26614
12331000,18180
12331000,11330
12337750,21092
12371000,8628
12371000,9111
12371000,25086
12371000,24541
12371000,14294
12371000,21372
12371000,25570
12371000,11776
12377250,14020
12377250,22556
12377250,2729
12377250,5799
12377250,18075
12377250,19405
12377250,8689
12384250,3658
12386500,2367
1240250,20297
1240250,18392
12417500,29099
12417500,8689
12417500,10570
12417500,1731
12417500,16406
12417500,18024
12417500,15138
12417500,28411
12417500,24601
1244250,4324
1244250,2764
1247000,25635
1247000,5043
1247000,18712
1319000,10449
1324500,27927
1324500,7868
1338750,6571
1365000,14580
1381000,27637
1381000,25329
1381000,14261
1381000,29099
140500,3627
140500,18730
1441500,27508
1446250,1155
1446250,18712
1446250,7105
1446250,20297
145750,11196
145750,11578
1492500,8637
1492500,11679
1517000,7208
1517000,27205
1525000,2257
1525000,11196
1528500,18736
1528500,28370
1528500,23774
1528500,7248
1528500,22280
1528500,5799
1528500,21092
1528500,12977
1531250,4078
154500,18805
154500,28621
154500,10353
154500,29197
154500,8689
1561250,7096
1561250,12352
1561250,14261
1579250,9906
1579250,8698
1579250,4078
1579250,7105
1579250,4953
1579250,21160
1579250,24194
1617250,21919
1617250,23284
1617250,28463
1617250,19405
1617250,27791
1617250,11329
1620500,28774
1620500,1195
1620500,23735
1622500,14020
1622500,12285
1629250,9120
1629250,29099
1629250,24196
1629250,18024
1629250,24601
1629250,19891
1629250,21392
1661750,14020
1661750,679
1661750,15315
1661750,1731
1661750,22342
1661750,9802
1661750,2729
1688750,3145
1688750,12220
1688750,7248
1710500,28065
1724000,29099
1724250,3228
1727500,9563
1727500,3228
1758250,6571
1758250,28463
1758250,2764
1758250,28481
1758250,27791
1782250,155
1782250,14415
1782250,18024
1792000,16540
1792000,23214
1793250,21067
1793250,2033
1806750,20701
1806750,26394
1812000,19814
1812000,11196
1812000,7868
1815750,5067
1838750,16818
1904750,23928
190500,4281
190500,18465
1906000,21110
1906000,1831
1906000,16540
1906000,12285
1906000,2438
1906000,12220
1906000,2683
1909250,26523
1909250,18180
1909250,6326
1909250,504
1911500,18730
19500,7096
19500,27927
19500,14048
19500,5086
19500,19421
19500,20551
1953250,2610
1953250,14020
1953250,3658
1953250,8313
1953250,24415
1966250,3228
1969000,5987
1969000,12220
1971500,7230
1971500,14415
1971500,7692
1971500,7096
1971500,21919
1971500,25329
1971500,8316
1971500,26288
1971500,7004
1971500,19166
1971500,11000
1971500,24070
1971500,27791
200250,19166
200250,5856
200250,12352
200250,25570
2033500,11176
2033500,4949
2033500,3627
2033500,16110
2033500,12352
2033500,8689
2050000,11022
2050000,10702
2078000,14902
2078000,24669
2078000,7622
2078000,27791
2088000,13020
2088000,15019
2103250,13592
2103250,11022
2103250,4220
2103250,14902
2103250,23549
2103250,22280
2103250,24325
2103250,28855
2132250,14159
2168250,7868
2182750,18808
2187500,6158
2187500,29203
2187500,23628
2198750,5429
2198750,18024
2200750,14020
2200750,2610
2200750,2655
2200750,8630
2200750,12285
2200750,18741
2232500,11000
2232500,679
2232500,24929
2232500,14261
2251750,23549
2251750,6571
2253250,28975
2316250,23475
2316250,18180
2316250,10948
2316250,9657
2316250,26288
232000,21865
232000,7105
232000,7868
2331750,18805
2331750,8628
2331750,20626
2331750,953
2331750,22126
2331750,22732
2331750,29099
2331750,11201
2331750,7179
2331750,27179
236000,8637
236000,18275
2364500,21865
2378500,2669
2378500,18937
2378500,26619
2378500,17470
2378500,23774
2378500,19974
2378500,16722
2378500,14153
2378500,3228
2386250,1008
239250,18990
239250,28481
2428500,17153
2428500,1396
2448250,24669
2448250,12541
2448250,949
2492500,16939
252500,18805
252500,15089
252500,23826
252500,6199
266500,10282
266500,9657
267250,679
267250,11679
267250,8313
267250,5053
267250,18829
267250,2367
267250,20297
267250,13787
2688750,155
2688750,19814
2704750,3658
2704750,13592
2752000,11679
2752000,3032
2752000,27906
2752000,26728
2752000,19405
2752000,5043
2752000,3313
2768250,23421
2771250,14694
2771250,2963
2771250,1494
2788750,7096
2788750,10702
2788750,5043
2788750,23628
2788750,18515
2788750,11176
2788750,11431
2788750,3804
2797750,3658
2807500,27117
2807500,18024
2807500,18741
2807500,11329
2823250,25329
2823250,2610
282500,12055
282500,3850
282500,2683
2870250,7096
2870250,14020
2870250,17606
2874500,28370
2874500,22094
2874500,3047
2874500,7868
2882750,11330
2891500,8027
2891500,11176
2891500,4949
2891500,3627
2891500,2257
2891500,14580
2891500,3047
2920750,22359
2920750,12285
2920750,23538
2920750,15946
2920750,7071
2920750,26699
2920750,27155
2921750,11201
2921750,27791
2921750,7105
2940000,12220
2940000,25086
2940000,14580
2940000,11767
2940000,26722
2940000,11272
2940000,12168
2940000,2683
2968250,18805
2968250,1831
2968250,8637
2968250,16463
2968250,4578
2975500,16670
2975500,14902
2975500,5086
2975500,16406
2975500,12352
2975500,11329
2975500,14153
2988000,17133
299750,24869
299750,11080
299750,24601
3001000,679
3001000,14902
3001000,4571
3001000,11080
3009000,19014
3009000,11000
3009000,27117
3009000,21840
3009000,17732
3009000,2033
3009000,7230
3009000,15019
3009000,28411
3010000,4220
3010000,13975
3014750,13471
3014750,7868
3031750,13878
3031750,7323
3031750,18388
3031750,14020
3031750,16406
3031750,21565
3031750,16110
3031750,29099
3031750,26288
3031750,12977
3031750,18131
3035250,11080
3054250,14020
3054250,5448
3054250,29203
3054250,7248
3054250,12285
3054250,9563
3089500,1917
3096750,15315
3114000,20536
3114000,21092
3114000,23928
3148500,16217
3148500,155
3148500,27346
3148500,28508
3148500,22126
3188000,16463
3211250,11076
3211250,16110
3211250,239
3211250,27155
3211250,6148
3216500,2963
3216500,28992
3216500,21146
3226500,27791
3226500,22240
3249250,26394
3249250,28641
3266750,5416
3266750,3228
3282250,29099
3288250,19394
3288250,25651
3293750,26523
3293750,7070
3293750,18075
3304500,17228
3304500,3804
3304500,4324
3304500,29099
3304500,16540
3304500,25169
3304500,4931
3304500,6158
3304500,24461
3310750,11176
3310750,25086
3310750,23774
3310750,24083
3310750,3458
3317500,3032
3317500,1917
3317500,7105
3326250,27389
3326250,20154
3326250,18712
3326250,24459
3326250,614
3344750,2771
3344750,28524
3344750,3313
3344750,24196
3344750,2421
3344750,11022
3344750,26614
3344750,28463
3350250,18736
3350250,3384
3350250,3409
3350250,25420
3350250,1672
3363000,18868
3363000,15315
3396250,15138
3396250,16939
3404000,15911
3404000,3627
3404000,27791
3511000,14020
3511000,13020
3520000,21336
3520000,29099
3520000,23409
3520000,14415
3520000,9563
3520000,21919
3520000,27927
3520000,10702
3520000,7105
3520000,22126
3520000,24984
3520000,2999
3520000,23928
3520000,24669
3520000,4499
3520000,18829
3520000,28065
3549000,5184
3573750,11176
3581250,23214
3581250,5086
3581250,28411
3581250,22126
3581250,5848
3588500,8637
3588500,18712
3588500,21336
3588500,7432
3592750,14694
3625250,26614
3625250,18180
3625250,21372
3625250,20549
364250,11679
3644250,29473
3644250,14661
3644250,18843
3644250,16406
3644250,7230
3675000,15024
3675000,9563
3675000,16722
3675000,8851
3684750,16463
3684750,16754
371250,21110
3719250,4960
3723750,14020
3723750,4078
3723750,5598
3723750,12271
3723750,25372
3742000,13020
3742000,2669
3751500,23284
3751500,20300
3751500,28411
3751500,10193
3787750,2610
3795000,12352
3795000,29099
3799500,21768
380000,1773
380000,22094
38250,14265
38250,15138
38250,18730
3846250,11679
3846250,16722
3846250,2826
3846250,23143
3861500,7868
3903500,1392
3913250,14020
3913250,3626
3913250,12220
3913250,8689
393250,20154
393250,4949
3952000,19837
3952000,9111
3952000,4479
3952000,25917
3952000,29099
3963750,7096
3963750,23475
3963750,11176
3963750,26614
3963750,4949
3963750,12977
3963750,11330
3963750,13020
3963750,19421
3963750,7356
3963750,21067
3963750,251
3977750,13975
3977750,17087
3977750,1461
3981750,3228
3981750,5185
3981750,22280
3981750,27791
3981750,23143
4004500,6571
4004500,15315
4035250,9340
4035250,3185
4035250,8630
4037500,14523
4047000,7208
4047000,18712
405000,1135
4054000,28124
4059500,16463
4059500,12159
4063000,19974
4073250,12271
4073250,17153
4102750,20585
4115500,26619
4118250,5185
4133750,25372
4153000,22621
4153000,14942
4153000,9111
4153000,18075
4153000,26523
4153000,21865
4153000,5043
415500,554
415500,23164
417250,12068
4184250,14020
4184250,11196
4184250,4949
4184250,23928
4184250,241
4184250,8689
418500,15138
4186500,27092
4195500,15315
4195500,9802
4195500,12285
42000,11578
42000,13390
4215750,9340
4215750,4281
4215750,14415
4215750,11391
4215750,23928
4215750,15302
4215750,7230
4215750,21085
425500,12285
425500,8313
4256000,16331
4256000,7692
4256000,5661
4256000,18741
4256000,27791
4256000,14153
4257000,11196
4259500,23628
4259500,15315
4259500,9111
4259500,29099
4259500,12541
4259500,11176
4304250,679
4304250,1155
4304250,14902
4304250,24929
4304250,7868
434750,19394
434750,4571
434750,3228
4370750,16343
4370750,4078
4370750,23628
4376250,15631
4376250,11524
4376250,8689
439000,25415
439000,3228
439000,12287
439000,26404
439000,647
439000,7868
4392000,2610
4423500,9111
4454500,15019
4454500,26699
4454500,27117
4475750,20536
4475750,4281
4475750,13592
4475750,18805
4475750,12068
4475750,25651
4475750,27401
4475750,23774
4475750,4949
4475750,18024
4475750,20551
4475750,9671
4475750,8689
448250,15911
4503500,11936
452750,14020
452750,21865
452750,25488
452750,14796
452750,6672
452750,251
4533750,10970
4533750,11431
4533750,4324
4533750,10908
4547500,8257
4625750,29197
4625750,24869
4625750,10570
4631250,15934
4631250,29099
4631250,20896
4631250,13103
4658500,21110
4658500,10948
4658500,25960
4658500,25917
4658500,11330
4658500,18075
4680000,16463
47000,2999
47000,23549
4712250,18388
4716750,13784
4716750,2963
4716750,8511
4716750,29202
4716750,2683
472000,25333
472000,2963
472000,21565
472000,6211
4770500,15315
4770500,2610
4770500,18075
4770500,24196
4770500,5876
4770500,24869
4770500,20297
4770500,28975
4782250,10193
4782250,27791
4809000,9193
4809000,1461
4809000,27637
4809750,679
4814750,26568
4844000,15934
4844000,27396
4844000,5598
4844000,24196
4844000,7868
4850000,614
4852500,16500
4852500,24541
4852500,26288
4852500,911
4852500,5848
4876750,11431
4876750,11378
4876750,949
4880250,27096
4886500,18805
4886500,20146
4895250,19166
4895250,7248
4895250,12068
4895250,24541
4895250,15423
4895250,21067
4902250,2323
4902250,23628
4907500,11196
4907500,24196
4907500,23622
4907500,5086
4907500,9709
4907500,8965
4921000,14048
4921000,3032
4921000,23549
4921000,19974
4922750,20701
4922750,18024
4922750,2669
4956000,15315
4963500,21110
4963500,21092
4967250,7868
5011500,11196
5011500,22280
5011500,27092
5012750,11196
5012750,13020
5012750,5053
5012750,5043
5024500,21110
5024500,9802
5024500,15138
5024500,14265
5024500,12977
5024500,528
5037000,27791
5037000,11196
5037000,27508
5037000,14796
5037000,12068
5037000,4571
5037000,6880
5037000,21067
5037000,20803
5037000,7868
5052000,7868
5078750,10329
5078750,554
5078750,7096
5078750,18990
5078750,4949
5078750,25329
5078750,9111
5078750,23628
5078750,13592
5108000,155
5108000,10193
5108000,15718
5108000,22556
5108000,10532
5108000,3627
5108000,4571
5108000,29203
5108000,23628
5108000,22359
5108000,7070
5108000,14020
5108000,12346
5110750,18167
5110750,21146
5110750,7096
5110750,26114
5110750,8414
5139250,1731
5139250,21336
5139250,23826
5139250,11080
5143250,5429
5143250,26614
5143250,26394
5143250,23549
5143250,28641
5143250,6880
5143250,9563
5143250,20411
5155750,18805
5155750,8173
5155750,2999
5155750,14661
5155750,24669
5155750,18024
5155750,7432
5170500,18805
5170500,14020
5170500,21672
5199750,9936
5199750,679
5220750,8689
5226250,21865
5226250,10726
5226250,24669
5226250,26416
5226250,8689
5226500,3627
5226500,7868
5238000,15138
5238000,2683
5239500,14153
5239500,16939
5248750,27035
5254500,22359
5254500,25488
5254500,24601
5254500,3313
5254500,21672
5254500,7868
5256500,614
5261000,11410
5261000,11000
5261000,13592
5261000,1591
5264500,27791
5279750,3228
5279750,6880
5279750,2368
528250,7096
528250,155
528250,2963
528250,12977
528250,21146
528250,8693
5292000,19974
5293250,679
5293250,4571
5293250,3995
5320000,3228
5336750,679
5336750,11000
5336750,20146
5336750,25272
5336750,24669
5336750,5043
5336750,8965
5354000,18024
5354000,18990
5407750,6352
5407750,3850
5407750,16373
5440500,11080
5440500,5043
5440500,25272
5440750,20701
5440750,2963
5491500,26288
5491500,18024
5491500,21092
5491500,6880
5491500,14265
5491500,20803
5522250,4479
5522250,15315
5539250,155
5539250,8689
5539250,18075
5539250,7868
563500,23928
563500,16939
5642000,11080
5642000,10726
5654000,16939
5654000,4571
5654000,528
5655250,9131
5655250,3228
5655250,11196
5655250,23669
5655250,14048
5655250,16500
567250,949
567250,6968
567250,7868
567250,27791
567250,7105
5693000,2655
5697750,2367
5697750,27791
5726500,23465
573000,18868
5742000,29465
5742000,25248
5742000,20668
5751500,1392
5751500,11679
5751500,23928
5751500,25488
5751500,21094
5751500,2033
5751500,19680
5751500,24869
5751500,12977
5751500,7004
5754500,14020
5754500,23214
5754500,14784
5754500,10282
5754500,11790
5754500,28752
5754500,25618
5769750,16818
5769750,26614
5780000,5157
5780000,21336
5780000,17061
5780000,155
5780000,14261
5780000,21071
5780000,7071
5780000,19421
5780000,2173
5780000,10702
5780000,1461
5780000,18736
5780000,9111
5780000,22556
5780000,25651
5780000,18712
5780000,26523
5780000,21092
5780000,11524
5780000,15315
5780000,11022
5780000,23928
5780000,18515
5812000,4039
5812000,2683
5846250,1831
5847500,21865
5865750,3228
5865750,11652
5865750,911
5898500,17732
5898500,7105
5899750,18730
5899750,12220
5899750,21672
5906250,27791
5906250,13784
5915250,2367
5915250,15138
5952250,5067
5952250,5094
5959000,18805
5959000,27791
5959000,4078
5959000,14153
5962750,27446
5962750,3228
5962750,2683
5962750,9563
5962750,11080
5962750,7105
5968250,16406
5968250,21840
5968250,29099
599750,18990
599750,12285
599750,9657
599750,20297
5999000,26523
5999000,10908
5999000,14265
6003750,5053
6003750,3913
6003750,10726
6003750,12285
6003750,23628
6003750,7868
6003750,11679
6061250,16463
6061250,22359
6061250,11176
6061250,29203
6061250,8628
6126750,25169
6126750,15019
6150750,18185
6150750,26523
6150750,17429
6155250,14020
6155250,1773
6155250,29203
6155250,4220
6172000,24704
6172000,7827
620500,6352
620500,21840
620500,4571
620500,15345
620500,26114
620500,7975
621500,6326
621500,29099
621500,2683
6233750,26619
6233750,3458
6233750,18180
6233750,10948
6233750,21146
6233750,4220
6234000,16463
6234000,4571
6234000,21372
6234000,4220
6247250,15814
6247250,25618
6257000,23628
6257000,3740
6257000,12285
6257000,16540
6257000,21071
6258500,12068
6266000,23774
6272000,2803
6272000,12055
6272000,17400
6301250,14942
6301250,8637
6301250,12271
6301250,8689
6301250,25917
6334000,10627
6380000,24459
6400000,2600
6400000,18712
6400000,2452
6400000,20551
6400000,3313
6412750,7208
6412750,14580
6433000,17087
6458250,27205
6458250,23475
6458250,22280
6458250,7692
6458500,8637
6497000,7927
650750,18202
650750,17772
65500,24196
65500,5443
65500,21840
65500,2452
65500,29202
6564500,11790
6564500,21950
6564500,11176
6564500,18730
6564500,14902
6564500,4949
6564500,16406
6564500,12977
6571000,13878
6571000,12162
6571750,5661
6571750,16540
6571750,155
6571750,9193
6572500,29099
6619500,15089
6619500,15934
6619500,3627
6619500,21067
6619500,1917
6634500,6571
6654750,16110
6654750,14261
6683750,29203
6683750,2826
6694750,14020
6694750,18730
6694750,24196
6694750,26298
6694750,12352
6694750,12977
6694750,5053
6700250,7957
6700250,18575
6713250,18805
6713250,5185
6713250,24541
6713250,2367
6713250,14261
6766250,18805
6766250,3977
6766250,28945
6766250,27791
6780500,4571
6780500,29099
6807250,8630
6807250,27791
6807250,25372
6848000,26619
6848000,23622
6848000,24601
6848000,12977
6848750,7070
6848750,21336
6848750,8689
6849750,29099
6849750,11679
6849750,19394
6849750,2199
6852750,7208
6852750,27906
6852750,4949
6852750,16939
6852750,12285
6852750,7356
6874250,18805
6874250,11080
6874250,8637
6874250,28410
6874250,14265
6874250,24844
6874250,12168
6874250,2683
6897000,23223
6904000,9111
691500,21840
691500,239
691500,19974
691500,28641
6921750,2367
69500,4691
69500,6352
69500,18730
69500,15315
69500,17470
69500,1917
6957500,24417
6957500,9111
6957500,24898
6957500,16722
6957500,14153
6998500,201
7003500,25090
7003500,11196
7034000,3850
7034000,1392
7103000,5574
7103000,15423
7103000,15019
7103000,11080
711500,26722
711500,11578
7116750,12541
7116750,23669
7116750,27637
7143250,2771
7143250,1773
7143250,26077
7143250,28641
7143250,22087
7143250,26114
7143250,13784
7143250,10702
7143250,29203
7143250,15799
7143250,24281
7163250,22609
7163250,19702
7163250,8689
7163250,20154
7184500,6352
7184500,10193
7184500,16939
7184500,28463
7184500,27791
7184500,7868
7190750,27791
7218000,7096
7218000,2421
7218000,24669
7218000,11201
7218000,6951
7218000,10702
7269250,8637
7269250,2729
7269250,27791
7269750,4019
7306250,4691
7306250,22359
731750,7692
731750,11196
7320250,26728
7323750,3458
7323750,11196
7361250,24541
7361250,28410
7367000,155
7367000,18730
7367000,15686
7367000,21336
7367000,20297
7367000,11888
7375000,11201
7435500,7975
7435500,18024
7445000,16463
7445000,18075
7450000,8637
7450000,29202
7450000,12977
7450000,27791
7450000,14261
745750,3228
745750,7827
745750,24869
745750,7230
745750,4578
745750,21071
746000,6571
746000,155
746000,3032
746000,12435
746000,21865
746000,7105
7476250,4571
7476250,29099
7476250,23284
7545250,11679
7545250,3228
7568750,12285
7568750,1831
7588000,17470
7588000,10329
7588000,28975
7588000,7105
7588000,28653
7600250,24869
7600250,25570
7600250,11176
7600250,3228
764000,18990
764750,14153
7657250,3228
7687500,26607
7687500,18730
7687500,7868
7687500,12285
7687500,14603
7687500,8173
7699500,8173
7699500,13592
7699500,18730
7699500,11679
7699500,23928
7699500,9802
7699500,5848
7703750,18730
7703750,18868
7703750,8278
7703750,3626
7703750,18075
7715000,19394
7715000,13795
7715000,11790
776750,27401
776750,22359
776750,3228
776750,18730
776750,2963
776750,26699
776750,18388
776750,21146
776750,14153
7785250,11790
7797000,6447
7797000,6571
7797000,11196
7810250,8637
7830250,554
7854500,7323
7854500,2421
7854500,14902
7854500,4949
7854500,12977
7854500,4571
7854500,12285
7854500,8278
7854500,11080
7886000,5094
7886000,6880
7886000,15934
7892000,911
791500,10329
791500,3627
791500,24831
791500,20297
7921500,22556
7921500,22583
7927750,3032
7927750,26288
7976750,3228
799000,16331
799000,3555
799000,29099
799000,8278
799000,27791
8017000,23284
8017000,22280
8033500,2471
8033500,16939
8033500,12435
8033500,28653
8040000,8257
8040000,17400
8040000,20300
8040000,9792
8040000,15138
8040000,12541
8040000,27205
8040000,18275
8040000,5043
8040000,239
8049000,5067
8049000,14821
8049000,21094
8049000,14319
8049000,3850
8051750,7936
8060000,18024
8070000,29197
8072250,14020
8072250,11196
8072250,12977
8072250,23143
8072250,1392
8096750,21672
8096750,28641
8096750,23628
8100250,7868
8102000,21110
8123500,1591
8129250,8637
8129250,7868
8149250,11679
8149250,11196
8149250,12162
8149250,2367
8156500,4078
8156500,6447
8156500,19974
8156500,6951
8163500,22621
8163500,18868
8195000,4078
8195000,5185
8195000,21672
8195000,18024
8195000,28410
8195000,11080
8215250,25372
8216500,6148
8216500,25329
8216500,22552
8216500,18712
8216500,28481
8216500,14159
8216500,27791
8216750,24281
8230750,4949
8243500,4931
8243500,11196
8243500,4949
8243500,949
8243500,14048
8243500,4479
8243500,29099
8243500,24869
8243500,18075
8243500,3047
8243500,11776
8271000,11280
8280500,17972
8314250,11196
8314250,17770
832250,18024
832250,27791
832250,23143
832250,5053
8324500,14020
8324500,9657
8324500,18741
8324500,9848
83250,1731
83250,25329
83250,4220
8346250,16939
835000,13878
835000,14020
835000,21462
835000,14048
835000,7990
835000,8637
835000,16722
835000,5848
8353250,16331
8353250,12285
8353250,7230
8353250,27205
8385000,21110
8385000,16463
8385000,9111
8385000,3458
8385000,7680
8385000,504
8385000,23284
8435250,16540
8435250,18730
8435250,11679
8435250,16110
8435250,7105
8435250,21067
8435250,11080
8435250,14261
847750,21684
847750,18024
848500,23628
848500,19891
8523250,1731
8523250,7827
8528750,27791
8528750,15315
8529750,22583
8529750,9702
8529750,16939
854250,4571
8555500,5598
8555500,18180
8555500,25372
8555500,29078
8573000,2323
8573000,6158
8573000,19828
861750,23284
861750,27791
8617500,4571
8617500,26619
8617500,11280
8628250,29465
8628250,28481
8628250,8630
8649250,2826
8649250,6571
8649250,18024
8649250,16939
8702500,8257
8702500,11196
8702500,7105
8702500,16540
8730250,8257
8730250,3913
8730250,3228
8730250,11679
8730250,12068
8730250,4571
8730250,18024
8730250,8278
8730250,911
8730250,28653
8745250,7706
8745250,23086
8757750,18024
8757750,24601
8757750,26288
8799750,679
8799750,4571
8799750,18024
8799750,20826
8799750,14261
8799750,13592
8822250,4578
8845250,18736
8845250,14020
8845250,554
8845250,23928
8845250,4039
8845250,16722
8845250,28653
887500,11080
887500,18946
887750,15934
887750,15019
8909750,22342
8909750,20803
8910750,18167
8910750,10948
8910750,26614
8910750,5598
8910750,24929
8910750,29078
8910750,11330
892500,17446
892500,239
892500,18741
892500,18805
892500,2669
8940500,251
8940500,13784
8940500,4571
8940500,23928
8940500,2655
8940500,25917
8940500,11080
8949750,16818
8949750,17438
8949750,21962
9035750,21919
9035750,4479
9035750,17732
9035750,18024
9035750,25618
9035750,29099
9039750,11196
9039750,3228
9039750,14580
9055750,11201
9069000,17446
9069000,15302
9069000,28017
9069000,17405
9076750,18575
9079500,4691
9079500,7208
9079500,11022
9079500,7868
9079500,25272
9121750,18805
9121750,15946
9121750,4571
9121750,19974
9121750,7868
9121750,5799
9121750,2683
9123500,2610
9123500,14694
9123500,4324
9123500,15138
9123500,12168
9163000,23475
9163000,6571
9163000,11080
9173750,14020
9173750,15315
9173750,11679
9173750,16110
9173750,12541
9173750,13784
9173750,16540
9179500,27637
9179500,11196
9179500,12220
9199500,4578
9199500,29099
9212500,7150
9215000,14294
9244000,13442
9244000,13471
9244000,7868
9288000,19394
9288000,2971
9351750,20626
9351750,11080
9351750,14580
9352750,18075
9352750,17133
9394250,19014
9394250,3228
9394250,29203
9394250,17087
9394500,29099
9394500,26712
9394500,6880
9394500,16540
9394500,8965
9436000,504
9436000,6571
9437500,7208
9437500,15718
9437500,22280
9437500,489
9512750,4239
9512750,27205
9512750,11080
9513250,23928
9513250,414
9513250,18024
9586500,414
9586500,17401
9586500,24601
9628250,18024
965500,9671
965500,18712
9671750,26722
9685000,3185
969750,2367
969750,14020
969750,3047
969750,2963
9706000,29099
9706000,9612
9706000,849
9706000,6740
9706000,22094
9706000,20297
9706000,12168
9716500,28065
9716500,6908
9720000,2771
9782000,14902
9782000,5086
9782000,7248
9782500,5856
9782500,6352
9802000,5883
9802000,24601
9807250,7868
9807250,26699
981000,14020
981000,11176
981000,14153
9839750,18167
9842500,18805
9842500,25086
9842500,10908
984500,27791
984500,18730
9906500,155
9906500,5185
9906500,26298
9906500,28411
9906500,8689
9946250,21865
9946250,26619
9972250,15138
9979000,251
9979000,8628
